{
  "version": 1,
  "projects": {
    "scrumer-gql": {
      "root": "apps/scrumer-gql",
      "sourceRoot": "apps/scrumer-gql/src",
      "projectType": "application",
      "schematics": {},
      "architect": {
        "build": {
          "builder": "@nrwl/web:build",
          "options": {
            "outputPath": "dist/apps/scrumer-gql",
            "index": "apps/scrumer-gql/src/index.html",
            "main": "apps/scrumer-gql/src/main.tsx",
            "polyfills": "apps/scrumer-gql/src/polyfills.ts",
            "tsConfig": "apps/scrumer-gql/tsconfig.app.json",
            "assets": [
              "apps/scrumer-gql/src/favicon.ico",
              "apps/scrumer-gql/src/assets"
            ],
            "styles": [],
            "scripts": [],
            "webpackConfig": "@nrwl/react/plugins/babel"
          },
          "configurations": {
            "production": {
              "fileReplacements": [
                {
                  "replace": "apps/scrumer-gql/src/environments/environment.ts",
                  "with": "apps/scrumer-gql/src/environments/environment.prod.ts"
                }
              ],
              "optimization": true,
              "outputHashing": "all",
              "sourceMap": false,
              "extractCss": true,
              "namedChunks": false,
              "extractLicenses": true,
              "vendorChunk": false,
              "budgets": [
                {
                  "type": "initial",
                  "maximumWarning": "2mb",
                  "maximumError": "5mb"
                }
              ]
            }
          }
        },
        "serve": {
          "builder": "@nrwl/web:dev-server",
          "options": {
            "buildTarget": "scrumer-gql:build",
            "proxyConfig": "apps/scrumer-gql/proxy.conf.json"
          },
          "configurations": {
            "production": {
              "buildTarget": "scrumer-gql:build:production"
            }
          }
        },
        "lint": {
          "builder": "@nrwl/linter:lint",
          "options": {
            "linter": "eslint",
            "config": "apps/scrumer-gql/.eslintrc",
            "tsConfig": [
              "apps/scrumer-gql/tsconfig.app.json",
              "apps/scrumer-gql/tsconfig.spec.json"
            ],
            "exclude": ["**/node_modules/**", "!apps/scrumer-gql/**"]
          }
        },
        "test": {
          "builder": "@nrwl/jest:jest",
          "options": {
            "jestConfig": "apps/scrumer-gql/jest.config.js",
            "tsConfig": "apps/scrumer-gql/tsconfig.spec.json"
          }
        }
      }
    },
    "scrumer-gql-e2e": {
      "root": "apps/scrumer-gql-e2e",
      "sourceRoot": "apps/scrumer-gql-e2e/src",
      "projectType": "application",
      "architect": {
        "e2e": {
          "builder": "@nrwl/cypress:cypress",
          "options": {
            "cypressConfig": "apps/scrumer-gql-e2e/cypress.json",
            "tsConfig": "apps/scrumer-gql-e2e/tsconfig.e2e.json",
            "devServerTarget": "scrumer-gql:serve"
          },
          "configurations": {
            "production": {
              "devServerTarget": "scrumer-gql:serve:production"
            }
          }
        },
        "lint": {
          "builder": "@nrwl/linter:lint",
          "options": {
            "linter": "eslint",
            "config": "apps/scrumer-gql-e2e/.eslintrc",
            "tsConfig": ["apps/scrumer-gql-e2e/tsconfig.e2e.json"],
            "exclude": ["**/node_modules/**", "!apps/scrumer-gql-e2e/**"]
          }
        }
      }
    },
    "api": {
      "root": "apps/api",
      "sourceRoot": "apps/api/src",
      "projectType": "application",
      "prefix": "api",
      "schematics": {},
      "architect": {
        "build": {
          "builder": "@nrwl/node:build",
          "options": {
            "outputPath": "dist/apps/api",
            "main": "apps/api/src/main.ts",
            "tsConfig": "apps/api/tsconfig.app.json",
            "assets": ["apps/api/src/assets"]
          },
          "configurations": {
            "production": {
              "optimization": true,
              "extractLicenses": true,
              "inspect": false,
              "fileReplacements": [
                {
                  "replace": "apps/api/src/environments/environment.ts",
                  "with": "apps/api/src/environments/environment.prod.ts"
                }
              ]
            }
          }
        },
        "serve": {
          "builder": "@nrwl/node:execute",
          "options": {
            "buildTarget": "api:build"
          }
        },
        "lint": {
          "builder": "@nrwl/linter:lint",
          "options": {
            "linter": "eslint",
            "config": "apps/api/.eslintrc",
            "tsConfig": [
              "apps/api/tsconfig.app.json",
              "apps/api/tsconfig.spec.json"
            ],
            "exclude": ["**/node_modules/**", "!apps/api/**"]
          }
        },
        "test": {
          "builder": "@nrwl/jest:jest",
          "options": {
            "jestConfig": "apps/api/jest.config.js",
            "tsConfig": "apps/api/tsconfig.spec.json"
          }
        }
      }
    },
    "api-interfaces": {
      "root": "libs/api-interfaces",
      "sourceRoot": "libs/api-interfaces/src",
      "projectType": "library",
      "schematics": {},
      "architect": {
        "lint": {
          "builder": "@nrwl/linter:lint",
          "options": {
            "linter": "eslint",
            "config": "libs/api-interfaces/.eslintrc",
            "tsConfig": [
              "libs/api-interfaces/tsconfig.lib.json",
              "libs/api-interfaces/tsconfig.spec.json"
            ],
            "exclude": ["**/node_modules/**", "!libs/api-interfaces/**"]
          }
        },
        "test": {
          "builder": "@nrwl/jest:jest",
          "options": {
            "jestConfig": "libs/api-interfaces/jest.config.js",
            "tsConfig": "libs/api-interfaces/tsconfig.spec.json"
          }
        }
      }
    },
    "enums": {
      "root": "libs/enums",
      "sourceRoot": "libs/enums/src",
      "projectType": "library",
      "schematics": {},
      "architect": {
        "lint": {
          "builder": "@nrwl/linter:lint",
          "options": {
            "linter": "eslint",
            "config": "libs/enums/.eslintrc",
            "tsConfig": [
              "libs/enums/tsconfig.lib.json",
              "libs/enums/tsconfig.spec.json"
            ],
            "exclude": ["**/node_modules/**", "!libs/enums/**"]
          }
        },
        "test": {
          "builder": "@nrwl/jest:jest",
          "options": {
            "jestConfig": "libs/enums/jest.config.js",
            "tsConfig": "libs/enums/tsconfig.spec.json"
          }
        }
      }
    },
    "users": {
      "root": "libs/users",
      "sourceRoot": "libs/users/src",
      "projectType": "library",
      "schematics": {},
      "architect": {
        "lint": {
          "builder": "@nrwl/linter:lint",
          "options": {
            "linter": "eslint",
            "config": "libs/users/.eslintrc",
            "tsConfig": [
              "libs/users/tsconfig.lib.json",
              "libs/users/tsconfig.spec.json"
            ],
            "exclude": ["**/node_modules/**", "!libs/users/**"]
          }
        },
        "test": {
          "builder": "@nrwl/jest:jest",
          "options": {
            "jestConfig": "libs/users/jest.config.js",
            "tsConfig": "libs/users/tsconfig.spec.json"
          }
        }
      }
    },
    "tasks": {
      "root": "libs/tasks",
      "sourceRoot": "libs/tasks/src",
      "projectType": "library",
      "schematics": {},
      "architect": {
        "lint": {
          "builder": "@nrwl/linter:lint",
          "options": {
            "linter": "eslint",
            "config": "libs/tasks/.eslintrc",
            "tsConfig": [
              "libs/tasks/tsconfig.lib.json",
              "libs/tasks/tsconfig.spec.json"
            ],
            "exclude": ["**/node_modules/**", "!libs/tasks/**"]
          }
        },
        "test": {
          "builder": "@nrwl/jest:jest",
          "options": {
            "jestConfig": "libs/tasks/jest.config.js",
            "tsConfig": "libs/tasks/tsconfig.spec.json"
          }
        }
      }
    }
  },
  "cli": {
    "defaultCollection": "@nrwl/react"
  },
  "schematics": {
    "@nrwl/workspace": {
      "library": {
        "linter": "eslint"
      }
    },
    "@nrwl/cypress": {
      "cypress-project": {
        "linter": "eslint"
      }
    },
    "@nrwl/react": {
      "application": {
        "style": "@emotion/styled",
        "linter": "eslint",
        "babel": true
      },
      "component": {
        "style": "@emotion/styled"
      },
      "library": {
        "style": "@emotion/styled",
        "linter": "eslint"
      }
    },
    "@nrwl/next": {
      "application": {
        "linter": "eslint"
      }
    },
    "@nrwl/web": {
      "application": {
        "linter": "eslint"
      }
    },
    "@nrwl/node": {
      "application": {
        "linter": "eslint"
      }
    },
    "@nrwl/nest": {
      "application": {
        "linter": "eslint"
      }
    },
    "@nrwl/express": {
      "application": {
        "linter": "eslint"
      }
    }
  },
  "defaultProject": "scrumer-gql"
}
